…
I wonder why South Lake Union is so highly booked. I checked, and it doesnt have the most or least expensive housing. Perhaps the most number of superhosts?

## # A tibble: 69 x 2
##    neighbourhood   superhost_properties
##    <fct>                          <int>
##  1 ""                                62
##  2 "Capitol Hill"                    62
##  3 "Ballard"                         57
##  4 "Minor"                           52
##  5 "Queen Anne"                      39
##  6 "Belltown"                        38
##  7 "Fremont"                         35
##  8 "Wallingford"                     33
##  9 "First Hill"                      21
## 10 "Columbia City"                   19
## #  with 59 more rows
…
